\relax 
\@writefile{toc}{\contentsline {chapter}{Reports}{0}}
\@writefile{toc}{\contentsline {title}{G9: POST 4U}{1}}
\@writefile{toc}{\authcount {2}}
\@writefile{toc}{\contentsline {author}{Mark Iandovka \and Yannick R\IeC {\"u}mmele}{1}}
\@writefile{toc}{\contentsline {section}{\numberline {1}Projektbeschreibung}{1}}
\@writefile{toc}{\contentsline {section}{\numberline {2}Datenmodell}{1}}
\@writefile{lof}{\contentsline {figure}{\numberline {1}{\ignorespaces Entity-Relationship-Modell\relax }}{2}}
\providecommand*\caption@xref[2]{\@setref\relax\@undefined{#1}}
\newlabel{fig1}{{1}{2}}
\@writefile{toc}{\contentsline {section}{\numberline {3}Technologien}{2}}
\@writefile{toc}{\contentsline {section}{\numberline {4}Resultat}{3}}
\@writefile{lof}{\contentsline {figure}{\numberline {2}{\ignorespaces Profilseite mit Posts\relax }}{3}}
\newlabel{fig1}{{2}{3}}
\@writefile{lof}{\contentsline {figure}{\numberline {3}{\ignorespaces Seite zur Registrierung auf POST 4U\relax }}{4}}
\newlabel{fig3}{{3}{4}}
\@writefile{lof}{\contentsline {figure}{\numberline {4}{\ignorespaces Seite zur \IeC {\"A}nderung der Profilangaben und zum L\IeC {\"o}schen des Profils auf POST 4U\relax }}{4}}
\newlabel{fig4}{{4}{4}}
\@writefile{toc}{\contentsline {section}{\numberline {5}Installation}{4}}
\@writefile{toc}{\contentsline {section}{\numberline {6}Lessons Learned}{5}}
