\contentsline {chapter}{Reports}{0}
\contentsline {title}{G9: POST 4U}{1}
\authcount {2}
\contentsline {author}{Mark Iandovka \and Yannick R\IeC {\"u}mmele}{1}
\contentsline {section}{\numberline {1}Projektbeschreibung}{1}
\contentsline {section}{\numberline {2}Datenmodell}{1}
\contentsline {section}{\numberline {3}Technologien}{2}
\contentsline {section}{\numberline {4}Resultat}{3}
\contentsline {section}{\numberline {5}Installation}{4}
\contentsline {section}{\numberline {6}Lessons Learned}{5}
