\relax 
\@writefile{toc}{\contentsline {chapter}{Reports}{0}}
\@writefile{toc}{\contentsline {title}{G??: Projektname}{1}}
\@writefile{toc}{\authcount {3}}
\@writefile{toc}{\contentsline {author}{Max Mustermann \and John Doe \and Jane Roe}{1}}
\@writefile{toc}{\contentsline {section}{\numberline {1}Projektbeschreibung}{1}}
\@writefile{toc}{\contentsline {section}{\numberline {2}Datenmodell}{1}}
\@writefile{toc}{\contentsline {section}{\numberline {3}Technologien}{1}}
\@writefile{toc}{\contentsline {section}{\numberline {4}Resultat}{1}}
\@writefile{toc}{\contentsline {section}{\numberline {5}Installation}{1}}
\@writefile{toc}{\contentsline {section}{\numberline {6}Lessons Learned}{1}}
