\contentsline {chapter}{Reports}{0}
\contentsline {title}{G??: Projektname}{1}
\authcount {3}
\contentsline {author}{Max Mustermann \and John Doe \and Jane Roe}{1}
\contentsline {section}{\numberline {1}Projektbeschreibung}{1}
\contentsline {section}{\numberline {2}Datenmodell}{1}
\contentsline {section}{\numberline {3}Technologien}{1}
\contentsline {section}{\numberline {4}Resultat}{1}
\contentsline {section}{\numberline {5}Installation}{1}
\contentsline {section}{\numberline {6}Lessons Learned}{1}
